vhdl/counter/simulation/counter_tb.vcd
$date
  Sun Jun 17 02:42:21 2018
$end
$version
  GHDL v0
$end
$timescale
  1 fs
$end
$var reg 1 ! clk $end
$var reg 1 " n_rst $end
$var reg 8 # cout[7:0] $end
$scope module dut $end
$var reg 1 $ clk $end
$var reg 1 % n_rst $end
$var reg 8 & cout[7:0] $end
$var reg 8 ' cnt[7:0] $end
$upscope $end
$enddefinitions $end
#0
0!
0"
b00000000 #
0$
0%
b00000000 &
b00000000 '
#5000000
1!
1$
#10000000
0!
1"
0$
1%
#15000000
1!
b00000001 #
1$
b00000001 &
b00000001 '
#20000000
0!
0$
#25000000
1!
b00000010 #
1$
b00000010 &
b00000010 '
#30000000
0!
0$
#35000000
1!
b00000011 #
1$
b00000011 &
b00000011 '
#40000000
0!
0$
#45000000
1!
b00000100 #
1$
b00000100 &
b00000100 '
#50000000
0!
0$
#55000000
1!
b00000101 #
1$
b00000101 &
b00000101 '
#60000000
0!
0$
#65000000
1!
b00000110 #
1$
b00000110 &
b00000110 '
#70000000
0!
0$
#75000000
1!
b00000111 #
1$
b00000111 &
b00000111 '
#80000000
0!
0$
#85000000
1!
b00001000 #
1$
b00001000 &
b00001000 '
#90000000
0!
0$
#95000000
1!
b00001001 #
1$
b00001001 &
b00001001 '
#100000000
0!
0$
#105000000
1!
b00001010 #
1$
b00001010 &
b00001010 '
#110000000
0!
0$
#115000000
1!
b00001011 #
1$
b00001011 &
b00001011 '
#120000000
0!
0$
#125000000
1!
b00001100 #
1$
b00001100 &
b00001100 '
#130000000
0!
0$
#135000000
1!
b00001101 #
1$
b00001101 &
b00001101 '
#140000000
0!
0$
#145000000
1!
b00001110 #
1$
b00001110 &
b00001110 '
#150000000
0!
0$
#155000000
1!
b00001111 #
1$
b00001111 &
b00001111 '
#160000000
0!
0$
#165000000
1!
b00010000 #
1$
b00010000 &
b00010000 '
#170000000
0!
0$
#175000000
1!
b00010001 #
1$
b00010001 &
b00010001 '
#180000000
0!
0$
#185000000
1!
b00010010 #
1$
b00010010 &
b00010010 '
#190000000
0!
0$
#195000000
1!
b00010011 #
1$
b00010011 &
b00010011 '
#200000000
0!
0$
#205000000
1!
b00010100 #
1$
b00010100 &
b00010100 '
#210000000
0!
0$
#215000000
1!
b00010101 #
1$
b00010101 &
b00010101 '
#220000000
0!
0$
#225000000
1!
b00010110 #
1$
b00010110 &
b00010110 '
#230000000
0!
0$
#235000000
1!
b00010111 #
1$
b00010111 &
b00010111 '
#240000000
0!
0$
#245000000
1!
b00011000 #
1$
b00011000 &
b00011000 '
#250000000
0!
0$
#255000000
1!
b00011001 #
1$
b00011001 &
b00011001 '
#260000000
0!
0"
b00000000 #
0$
0%
b00000000 &
b00000000 '
#265000000
1!
1$
#270000000
0!
1"
0$
1%
#275000000
1!
b00000001 #
1$
b00000001 &
b00000001 '
#280000000
0!
0$
#285000000
1!
b00000010 #
1$
b00000010 &
b00000010 '
#290000000
0!
0$
#295000000
1!
b00000011 #
1$
b00000011 &
b00000011 '
#300000000
0!
0$
#305000000
1!
b00000100 #
1$
b00000100 &
b00000100 '
#310000000
0!
0$
#315000000
1!
b00000101 #
1$
b00000101 &
b00000101 '
#320000000
0!
0$
#325000000
1!
b00000110 #
1$
b00000110 &
b00000110 '
#330000000
0!
0$
#335000000
1!
b00000111 #
1$
b00000111 &
b00000111 '
#340000000
0!
0$
#345000000
1!
b00001000 #
1$
b00001000 &
b00001000 '
#350000000
0!
0$
#355000000
1!
b00001001 #
1$
b00001001 &
b00001001 '
#360000000
0!
0$
#365000000
1!
b00001010 #
1$
b00001010 &
b00001010 '
#370000000
0!
0$
#375000000
1!
b00001011 #
1$
b00001011 &
b00001011 '
#380000000
0!
0$
#385000000
1!
b00001100 #
1$
b00001100 &
b00001100 '
#390000000
0!
0$
#395000000
1!
b00001101 #
1$
b00001101 &
b00001101 '
#400000000
0!
0$
#405000000
1!
b00001110 #
1$
b00001110 &
b00001110 '
#410000000
0!
0$
#415000000
1!
b00001111 #
1$
b00001111 &
b00001111 '
#420000000
0!
0$
#425000000
1!
b00010000 #
1$
b00010000 &
b00010000 '
#430000000
0!
0$
#435000000
1!
b00010001 #
1$
b00010001 &
b00010001 '
#440000000
0!
0$
#445000000
1!
b00010010 #
1$
b00010010 &
b00010010 '
#450000000
0!
0$
#455000000
1!
b00010011 #
1$
b00010011 &
b00010011 '
#460000000
0!
0$
#465000000
1!
b00010100 #
1$
b00010100 &
b00010100 '
#470000000
0!
0$
#475000000
1!
b00010101 #
1$
b00010101 &
b00010101 '
#480000000
0!
0$
#485000000
1!
b00010110 #
1$
b00010110 &
b00010110 '
#490000000
0!
0$
#495000000
1!
b00010111 #
1$
b00010111 &
b00010111 '
